<svg xmlns="http://www.w3.org/2000/svg" viewBox="0 0 45.3 45.3">
    <defs>
        <style>.cls-1{fill:#fff;}</style>
    </defs>
    <title>资源 2</title>
    <g id="图层_2" data-name="图层 2">
        <g id="Icons">
            <path class="cls-1"
                  d="M44.05,21.4H35.28a12.56,12.56,0,0,0-2.82-6.8l4.46-4.46a1.25,1.25,0,0,0-1.77-1.76L30.7,12.83A12.67,12.67,0,0,0,23.9,10V1.25a1.25,1.25,0,0,0-2.5,0V10a12.63,12.63,0,0,0-6.8,2.82L10.14,8.38a1.24,1.24,0,0,0-1.76,1.76l4.45,4.46A12.63,12.63,0,0,0,10,21.4H1.25a1.25,1.25,0,0,0,0,2.5H10a12.67,12.67,0,0,0,2.82,6.8L8.38,35.15a1.25,1.25,0,1,0,1.76,1.77l4.46-4.46a12.56,12.56,0,0,0,6.8,2.82v8.77a1.25,1.25,0,0,0,2.5,0V35.28a12.59,12.59,0,0,0,6.8-2.82l4.45,4.46a1.29,1.29,0,0,0,.89.37,1.26,1.26,0,0,0,.88-2.14L32.46,30.7a12.59,12.59,0,0,0,2.82-6.8h8.77a1.25,1.25,0,0,0,0-2.5ZM22.65,32.85a10.2,10.2,0,1,1,10.2-10.2A10.21,10.21,0,0,1,22.65,32.85Z"/>
        </g>
    </g>
</svg>